%YAML 1.1
%TAG !u! tag:unity3d.com,2011:
--- !u!1045 &1
EditorBuildSettings:
  m_ObjectHideFlags: 0
  serializedVersion: 2
  m_Scenes:
  - enabled: 1
    path: Assets/Scenes/main.unity
    guid: ffb74a72fb4e0ad4282e57d9abb639f3
  - enabled: 1
    path: Assets/Scenes/SinirSistemi.unity
    guid: e9f9c3f60dbadff48964378ceb040e8c
  - enabled: 1
    path: Assets/Scenes/Resimler.unity
    guid: 97fa26dfbb89e404389bafb6150f21dd
  - enabled: 1
    path: Assets/Scenes/Oyunlar.unity
    guid: 476271b1c5181bc48bf1e24b41d6fddc
  - enabled: 1
    path: Assets/Scenes/Videolar.unity
    guid: 41fba8a451f9d68499f2dda54710df36
  - enabled: 1
    path: Assets/Scenes/quiz.unity
    guid: 745ead9b322086c4f8c19fedae96939e
  - enabled: 1
    path: Assets/Scenes/DicomSlider.unity
    guid: 1711223ea3fc88243a88d47feffbff1c
  - enabled: 1
<<<<<<< HEAD
    path: Assets/Scenes/3DModels.unity
    guid: 13bb7090336e5704d815e4393d4fb951
  - enabled: 1
    path: Assets/Scenes/DicomSliders.unity
    guid: c249e110d79074e48b2b7d31521be0b2
=======
    path: Assets/Scenes/Quizler.unity
    guid: d4d50da907ba8824786941e92b9acda7
>>>>>>> 6b3b94c9dbc680b88e8637103a9b018b380abc76
  m_configObjects: {}
